{
  "DATA_UZYCZENIA": "",
  "DATA_POUFNOSCI": "",
  "DATA_UMOWY_WSPOLPRACA": "",
  "DATA_ZLECENIA": "",
  "REPREZENTANT_FIRMY": "",
  "REPREZENTANT_TELEFON": "",
  "REPREZENTANT_EMAIL": "",
  "MIASTO_ZAMIESZKANIA": "",
  "ULICA_ZAMIESZKANIA": "",
  "NUMER_DOWODU": "",
  "NUMER_PESEL": "",
  "NR_SERYJNY": "",
  "NAZWA_FIRMY": "",
  "ADRES_FIRMY": "",
  "KOD_POCZTOWY_FIRMY": "",
  "MIASTO_FIRMY": "",
  "NIP_FIRMY": "",
  "REGON_FIRMY": "",
  "NR_ZLECENIA": "",
  "STAWKA_MSC": "",
  "Z_VAT": "",
  "ZAMOWIENIE_OD": "",
  "ZAMOWIENIE_DO": "",
  "OKRES_WYPOWIEDZENIA": ""
}